{
	"color": 0xE09916,
	"addItems": [ "all" ],
	"addBlocks": [ "all", "!ore" ],
	"alloy": {
		"inputs": [ "tin", "copper", "copper", "copper" ],
		"output": 4
	},
    "langs": {
        "material": {
            "en": "Bronze",
            "ru": "бронзы",
            "de": "Bronze"
        }
    }
}