{
	"color": 0xE6BB3C,
	"addItems": [ "all" ],
	"addBlocks": [ "all", "!ore" ],
	"alloy": {
		"inputs": [ "gold", "silver" ],
		"output": 2
	},
    "langs": {
        "material": {
            "en": "Electrum",
            "ru": "электрума",
            "de": "Elektrum"
        }
    }
}